router/router_tb.vcd
$date
     Sep 30, 2021       16:56:21
$end

$version
 SystemC 2.3.3-Accellera --- Mar 22 2020 15:59:11
$end

$timescale
     1 ps
$end

$scope module SystemC $end
$var wire    1  aaaaa  clk       $end
$var wire    1  aaaab  rst       $end
$var wire    8  aaaac  l_in_data_i [7:0]  $end
$var wire    1  aaaad  l_in_val_i       $end
$var wire    1  aaaae  l_in_ack_o       $end
$var wire    8  aaaaf  l_out_data_o [7:0]  $end
$var wire    1  aaaag  l_out_val_o       $end
$var wire    1  aaaah  l_out_ack_i       $end
$var wire    8  aaaai  n_in_data_i [7:0]  $end
$var wire    1  aaaaj  n_in_val_i       $end
$var wire    1  aaaak  n_in_ack_o       $end
$var wire    8  aaaal  n_out_data_o [7:0]  $end
$var wire    1  aaaam  n_out_val_o       $end
$var wire    1  aaaan  n_out_ack_i       $end
$var wire    8  aaaao  e_in_data_i [7:0]  $end
$var wire    1  aaaap  e_in_val_i       $end
$var wire    1  aaaaq  e_in_ack_o       $end
$var wire    8  aaaar  e_out_data_o [7:0]  $end
$var wire    1  aaaas  e_out_val_o       $end
$var wire    1  aaaat  e_out_ack_i       $end
$var wire    8  aaaau  s_in_data_i [7:0]  $end
$var wire    1  aaaav  s_in_val_i       $end
$var wire    1  aaaaw  s_in_ack_o       $end
$var wire    8  aaaax  s_out_data_o [7:0]  $end
$var wire    1  aaaay  s_out_val_o       $end
$var wire    1  aaaaz  s_out_ack_i       $end
$var wire    8  aaaba  w_in_data_i [7:0]  $end
$var wire    1  aaabb  w_in_val_i       $end
$var wire    1  aaabc  w_in_ack_o       $end
$var wire    8  aaabd  w_out_data_o [7:0]  $end
$var wire    1  aaabe  w_out_val_o       $end
$var wire    1  aaabf  w_out_ack_i       $end
$upscope $end
$enddefinitions  $end

$comment
All initial values are dumped below at time 0 sec = 0 timescale units.
$end

$dumpvars
1aaaaa
1aaaab
b0 aaaac
0aaaad
0aaaae
b0 aaaaf
0aaaag
0aaaah
b0 aaaai
0aaaaj
0aaaak
b0 aaaal
0aaaam
0aaaan
b0 aaaao
0aaaap
0aaaaq
b0 aaaar
0aaaas
0aaaat
b0 aaaau
0aaaav
0aaaaw
b0 aaaax
0aaaay
0aaaaz
b0 aaaba
0aaabb
0aaabc
b0 aaabd
0aaabe
0aaabf
$end

#500
0aaaaa

#1000
1aaaaa
0aaaab
b11111111 aaaac

#1500
0aaaaa

#2000
1aaaaa
1aaaad

#2500
0aaaaa

#3000
1aaaaa
1aaaae

#3500
0aaaaa

#4000
1aaaaa
0aaaad

#4500
0aaaaa

#5000
1aaaaa
0aaaae

#5500
0aaaaa

#6000
1aaaaa
b101 aaaac

#6500
0aaaaa

#7000
1aaaaa
1aaaad

#7500
0aaaaa

#8000
1aaaaa
1aaaae
b11111111 aaaar

#8500
0aaaaa

#9000
1aaaaa
0aaaad

#9500
0aaaaa

#10000
1aaaaa
0aaaae
1aaaas

#10500
0aaaaa

#11000
1aaaaa
b10101 aaaac
1aaaat

#11500
0aaaaa

#12000
1aaaaa
1aaaad
0aaaas

#12500
0aaaaa

#13000
1aaaaa
1aaaae
0aaaat

#13500
0aaaaa
b101 aaaar

#14000
1aaaaa
0aaaad
1aaaas

#14500
0aaaaa

#15000
1aaaaa
0aaaae
1aaaat

#15500
0aaaaa

#16000
1aaaaa
b1000101 aaaac
0aaaas

#16500
0aaaaa

#17000
1aaaaa
1aaaad
0aaaat

#17500
0aaaaa
b10101 aaaar

#18000
1aaaaa
1aaaae
1aaaas

#18500
0aaaaa

#19000
1aaaaa
0aaaad
1aaaat

#19500
0aaaaa

#20000
1aaaaa
0aaaae
0aaaas

#20500
0aaaaa

#21000
1aaaaa
b10000 aaaac
0aaaat

#21500
0aaaaa
b1000101 aaaar

#22000
1aaaaa
1aaaad
1aaaas

#22500
0aaaaa

#23000
1aaaaa
1aaaae
1aaaat

#23500
0aaaaa

#24000
1aaaaa
0aaaad
0aaaas

#24500
0aaaaa

#25000
1aaaaa
0aaaae
0aaaat

#25500
0aaaaa
b10000 aaaar

#26000
1aaaaa
b10000000 aaaac
1aaaas

#26500
0aaaaa

#27000
1aaaaa
1aaaad
1aaaat

#27500
0aaaaa

#28000
1aaaaa
1aaaae
0aaaas

#28500
0aaaaa

#29000
1aaaaa
0aaaad
0aaaat

#29500
0aaaaa
b10000000 aaaar

#30000
1aaaaa
0aaaae
1aaaas

#30500
0aaaaa

#31000
1aaaaa
b0 aaaac
1aaaat

#31500
0aaaaa

#32000
1aaaaa
b10000001 aaaao
0aaaas

#32500
0aaaaa

#33000
1aaaaa
1aaaap
0aaaat

#33500
0aaaaa

#34000
1aaaaa
1aaaaq
b0 aaaar
1aaaas

#34500
0aaaaa

#35000
1aaaaa
0aaaap
1aaaat

#35500
0aaaaa

#36000
1aaaaa
0aaaaq
0aaaas

#36500
0aaaaa

#37000
1aaaaa
b111 aaaao
0aaaat

#37500
0aaaaa

#38000
1aaaaa
1aaaap

#38500
0aaaaa

#39000
1aaaaa
b10000001 aaaaf
1aaaaq

#39500
0aaaaa

#40000
1aaaaa
0aaaap

#40500
0aaaaa

#41000
1aaaaa
1aaaag
0aaaaq

#41500
0aaaaa

#42000
1aaaaa
1aaaah
b100101 aaaao

#42500
0aaaaa

#43000
1aaaaa
0aaaag
1aaaap

#43500
0aaaaa

#44000
1aaaaa
0aaaah
1aaaaq

#44500
0aaaaa
b111 aaaaf

#45000
1aaaaa
1aaaag
0aaaap

#45500
0aaaaa

#46000
1aaaaa
1aaaah
0aaaaq

#46500
0aaaaa

#47000
1aaaaa
0aaaag
b1101 aaaao

#47500
0aaaaa

#48000
1aaaaa
0aaaah
1aaaap

#48500
0aaaaa
b100101 aaaaf

#49000
1aaaaa
1aaaag
1aaaaq

#49500
0aaaaa

#50000
1aaaaa
1aaaah
0aaaap

#50500
0aaaaa

#51000
1aaaaa
0aaaag
0aaaaq

#51500
0aaaaa

#52000
1aaaaa
0aaaah
b10000 aaaao

#52500
0aaaaa
b1101 aaaaf

#53000
1aaaaa
1aaaag
1aaaap

#53500
0aaaaa

#54000
1aaaaa
1aaaah
1aaaaq

#54500
0aaaaa

#55000
1aaaaa
0aaaag
0aaaap

#55500
0aaaaa

#56000
1aaaaa
0aaaah
0aaaaq

#56500
0aaaaa
b10000 aaaaf

#57000
1aaaaa
1aaaag
b10000000 aaaao

#57500
0aaaaa

#58000
1aaaaa
1aaaah
1aaaap

#58500
0aaaaa

#59000
1aaaaa
0aaaag
1aaaaq

#59500
0aaaaa

#60000
1aaaaa
0aaaah
0aaaap

#60500
0aaaaa
b10000000 aaaaf

#61000
1aaaaa
1aaaag
0aaaaq

#61500
0aaaaa

#62000
1aaaaa
1aaaah
b0 aaaao

#62500
0aaaaa

#63000
1aaaaa
0aaaag

#63500
0aaaaa

#64000
1aaaaa
0aaaah

#64500
0aaaaa

#65000
1aaaaa
b0 aaaaf
1aaaag

#65500
0aaaaa

#66000
1aaaaa
1aaaah

#66500
0aaaaa

#67000
1aaaaa
0aaaag

#67500
0aaaaa

#68000
1aaaaa
0aaaah

