bi-router/birouter_tb.vcd
$date
     Oct 06, 2021       15:01:34
$end

$version
 SystemC 2.3.3-Accellera --- Mar 22 2020 15:59:11
$end

$timescale
     1 ps
$end

$scope module SystemC $end
$var wire    1  aaaaa  x_in_ack_w1       $end
$var wire    1  aaaab  x_in_val_w1       $end
$var wire    8  aaaac  x_in_data_w1 [7:0]  $end
$var wire    1  aaaad  l_out_ack_i_1       $end
$var wire    1  aaaae  l_out_ack_i       $end
$var wire    1  aaaaf  l_out_val_o_1       $end
$var wire    1  aaaag  l_out_val_o       $end
$var wire    8  aaaah  l_out_data_o_1 [7:0]  $end
$var wire    8  aaaai  l_out_data_o [7:0]  $end
$var wire    1  aaaaj  l_in_ack_o_1       $end
$var wire    1  aaaak  l_in_ack_o       $end
$var wire    1  aaaal  l_in_val_i_1       $end
$var wire    1  aaaam  l_in_val_i       $end
$var wire    8  aaaan  l_in_data_i_1 [7:0]  $end
$var wire    8  aaaao  l_in_data_i [7:0]  $end
$var wire    1  aaaap  rst_i       $end
$var wire    1  aaaaq  clk_i       $end
$upscope $end
$enddefinitions  $end

$comment
All initial values are dumped below at time 0 sec = 0 timescale units.
$end

$dumpvars
0aaaaa
0aaaab
b0 aaaac
0aaaad
0aaaae
0aaaaf
0aaaag
b0 aaaah
b0 aaaai
0aaaaj
0aaaak
0aaaal
0aaaam
b0 aaaan
b0 aaaao
1aaaap
1aaaaq
$end

#500
0aaaaq

#1000
b10000001 aaaao
0aaaap
1aaaaq

#1500
0aaaaq

#2000
1aaaam
1aaaaq

#2500
0aaaaq

#3000
1aaaak
1aaaaq

#3500
0aaaaq

#4000
0aaaam
1aaaaq

#4500
0aaaaq

#5000
0aaaak
1aaaaq

#5500
0aaaaq

#6000
b100 aaaao
1aaaaq

#6500
0aaaaq

#7000
1aaaam
1aaaaq

#7500
0aaaaq

#8000
1aaaak
1aaaaq

#8500
b10000001 aaaac
0aaaaq

#9000
0aaaam
1aaaaq

#9500
0aaaaq

#10000
0aaaak
1aaaaq

#10500
1aaaab
0aaaaq

#11000
b10000 aaaao
1aaaaq

#11500
0aaaaq

#12000
1aaaam
1aaaaq

#12500
1aaaaa
0aaaaq

#13000
1aaaak
1aaaaq

#13500
0aaaaq

#14000
0aaaam
1aaaaq

#14500
0aaaab
0aaaaq

#15000
0aaaak
1aaaaq

#15500
0aaaaq

#16000
b100 aaaac
b10000000 aaaao
1aaaaq

#16500
0aaaaa
0aaaaq

#17000
b10000001 aaaah
1aaaam
1aaaaq

#17500
0aaaaq

#18000
1aaaak
1aaaaq

#18500
1aaaab
0aaaaq

#19000
1aaaaf
0aaaam
1aaaaq

#19500
0aaaaq

#20000
1aaaad
0aaaak
1aaaaq

#20500
1aaaaa
0aaaaq

#21000
0aaaaf
b0 aaaao
1aaaaq

#21500
0aaaaq

#22000
0aaaad
1aaaaq

#22500
0aaaab
b100 aaaah
0aaaaq

#23000
1aaaaf
1aaaaq

#23500
0aaaaq

#24000
b10000 aaaac
1aaaad
1aaaaq

#24500
0aaaaa
0aaaaq

#25000
0aaaaf
1aaaaq

#25500
0aaaaq

#26000
0aaaad
1aaaaq

#26500
1aaaab
0aaaaq

#27000
1aaaaf
1aaaaq

#27500
0aaaaq

#28000
1aaaad
1aaaaq

#28500
1aaaaa
0aaaaq

#29000
0aaaaf
1aaaaq

#29500
b10000 aaaah
0aaaaq

#30000
0aaaad
1aaaaq

#30500
0aaaab
0aaaaq

#31000
1aaaaq

#31500
0aaaaq

#32000
b10000000 aaaac
1aaaaf
1aaaaq

#32500
0aaaaa
0aaaaq

#33000
1aaaad
1aaaaq

#33500
0aaaaq

#34000
0aaaaf
1aaaaq

#34500
1aaaab
0aaaaq

#35000
0aaaad
1aaaaq

#35500
0aaaaq

#36000
1aaaaq

#36500
1aaaaa
0aaaaq

#37000
1aaaaq

#37500
b10000000 aaaah
0aaaaq

#38000
1aaaaq

#38500
0aaaab
0aaaaq

#39000
1aaaaq

#39500
0aaaaq

#40000
1aaaaf
1aaaaq

#40500
0aaaaa
b0 aaaac
0aaaaq

#41000
1aaaad
1aaaaq

#41500
0aaaaq

#42000
0aaaaf
1aaaaq

#42500
0aaaaq

#43000
0aaaad
1aaaaq

#43500
0aaaaq

#44000
1aaaaf
b0 aaaah
1aaaaq

#44500
0aaaaq

#45000
1aaaad
1aaaaq

#45500
0aaaaq

#46000
0aaaaf
1aaaaq

#46500
0aaaaq

#47000
0aaaad
1aaaaq

