XINA/XINA_tb.vcd
$date
     Sep 30, 2021       16:56:50
$end

$version
 SystemC 2.3.3-Accellera --- Mar 22 2020 15:59:11
$end

$timescale
     1 ps
$end

$scope module SystemC $end
$var wire    1  aaaaa  clk       $end
$var wire    1  aaaab  rst       $end
$var wire    8  aaaac  l_in_data_i0 [7:0]  $end
$var wire    1  aaaad  l_in_val_i0       $end
$var wire    1  aaaae  l_in_ack_o0       $end
$var wire    8  aaaaf  l_out_data_o0 [7:0]  $end
$var wire    1  aaaag  l_out_val_o0       $end
$var wire    1  aaaah  l_out_ack_i0       $end
$var wire    8  aaaai  l_in_data_i1 [7:0]  $end
$var wire    1  aaaaj  l_in_val_i1       $end
$var wire    1  aaaak  l_in_ack_o1       $end
$var wire    8  aaaal  l_out_data_o1 [7:0]  $end
$var wire    1  aaaam  l_out_val_o1       $end
$var wire    1  aaaan  l_out_ack_i1       $end
$var wire    8  aaaao  l_in_data_i2 [7:0]  $end
$var wire    1  aaaap  l_in_val_i2       $end
$var wire    1  aaaaq  l_in_ack_o2       $end
$var wire    8  aaaar  l_out_data_o2 [7:0]  $end
$var wire    1  aaaas  l_out_val_o2       $end
$var wire    1  aaaat  l_out_ack_i2       $end
$var wire    8  aaaau  l_in_data_i3 [7:0]  $end
$var wire    1  aaaav  l_in_val_i3       $end
$var wire    1  aaaaw  l_in_ack_o3       $end
$var wire    8  aaaax  l_out_data_o3 [7:0]  $end
$var wire    1  aaaay  l_out_val_o3       $end
$var wire    1  aaaaz  l_out_ack_i3       $end
$upscope $end
$enddefinitions  $end

$comment
All initial values are dumped below at time 0 sec = 0 timescale units.
$end

$dumpvars
1aaaaa
1aaaab
b0 aaaac
0aaaad
0aaaae
b0 aaaaf
0aaaag
0aaaah
b0 aaaai
0aaaaj
0aaaak
b0 aaaal
0aaaam
0aaaan
b0 aaaao
0aaaap
0aaaaq
b0 aaaar
0aaaas
0aaaat
b0 aaaau
0aaaav
0aaaaw
b0 aaaax
0aaaay
0aaaaz
$end

#500
0aaaaa

#1000
1aaaaa
0aaaab
b10000001 aaaac

#1500
0aaaaa

#2000
1aaaaa
1aaaad

#2500
0aaaaa

#3000
1aaaaa
1aaaae

#3500
0aaaaa

#4000
1aaaaa
0aaaad

#4500
0aaaaa

#5000
1aaaaa
0aaaae

#5500
0aaaaa

#6000
1aaaaa
b101 aaaac

#6500
0aaaaa

#7000
1aaaaa
1aaaad

#7500
0aaaaa

#8000
1aaaaa
1aaaae

#8500
0aaaaa

#9000
1aaaaa
0aaaad

#9500
0aaaaa

#10000
1aaaaa
0aaaae

#10500
0aaaaa

#11000
1aaaaa
b10101 aaaac

#11500
0aaaaa

#12000
1aaaaa
1aaaad

#12500
0aaaaa

#13000
1aaaaa
1aaaae

#13500
0aaaaa

#14000
1aaaaa
0aaaad

#14500
0aaaaa

#15000
1aaaaa
0aaaae

#15500
0aaaaa

#16000
1aaaaa
b1000101 aaaac

#16500
0aaaaa

#17000
1aaaaa
1aaaad
b10000001 aaaal

#17500
0aaaaa

#18000
1aaaaa
1aaaae

#18500
0aaaaa

#19000
1aaaaa
0aaaad
1aaaam

#19500
0aaaaa

#20000
1aaaaa
0aaaae
1aaaan

#20500
0aaaaa

#21000
1aaaaa
b10000 aaaac
0aaaam

#21500
0aaaaa

#22000
1aaaaa
1aaaad
0aaaan

#22500
0aaaaa
b101 aaaal

#23000
1aaaaa
1aaaae
1aaaam

#23500
0aaaaa

#24000
1aaaaa
0aaaad
1aaaan

#24500
0aaaaa

#25000
1aaaaa
0aaaae
0aaaam

#25500
0aaaaa

#26000
1aaaaa
b10000000 aaaac
0aaaan

#26500
0aaaaa

#27000
1aaaaa
1aaaad
1aaaam

#27500
0aaaaa

#28000
1aaaaa
1aaaae
1aaaan

#28500
0aaaaa

#29000
1aaaaa
0aaaad
0aaaam

#29500
0aaaaa
b10101 aaaal

#30000
1aaaaa
0aaaae
0aaaan

#30500
0aaaaa

#31000
1aaaaa
b0 aaaac
b10000001 aaaao

#31500
0aaaaa

#32000
1aaaaa
1aaaam
1aaaap

#32500
0aaaaa

#33000
1aaaaa
1aaaan
1aaaaq

#33500
0aaaaa

#34000
1aaaaa
0aaaam
0aaaap

#34500
0aaaaa

#35000
1aaaaa
0aaaan
0aaaaq

#35500
0aaaaa

#36000
1aaaaa
b111 aaaao

#36500
0aaaaa

#37000
1aaaaa
1aaaap

#37500
0aaaaa
b1000101 aaaal

#38000
1aaaaa
1aaaaq

#38500
0aaaaa

#39000
1aaaaa
0aaaap

#39500
0aaaaa

#40000
1aaaaa
1aaaam
0aaaaq

#40500
0aaaaa

#41000
1aaaaa
1aaaan
b100101 aaaao

#41500
0aaaaa

#42000
1aaaaa
0aaaam
1aaaap

#42500
0aaaaa

#43000
1aaaaa
0aaaan
1aaaaq

#43500
0aaaaa

#44000
1aaaaa
1aaaam
0aaaap

#44500
0aaaaa

#45000
1aaaaa
1aaaan
0aaaaq

#45500
0aaaaa
b10000 aaaal

#46000
1aaaaa
0aaaam
b1101 aaaao

#46500
0aaaaa

#47000
1aaaaa
0aaaan
1aaaap

#47500
0aaaaa

#48000
1aaaaa
1aaaam
1aaaaq

#48500
0aaaaa

#49000
1aaaaa
1aaaan
0aaaap

#49500
0aaaaa

#50000
1aaaaa
0aaaam
0aaaaq

#50500
0aaaaa

#51000
1aaaaa
0aaaan
b10000 aaaao

#51500
0aaaaa

#52000
1aaaaa
1aaaap

#52500
0aaaaa

#53000
1aaaaa
1aaaaq

#53500
0aaaaa
b10000000 aaaal

#54000
1aaaaa
0aaaap

#54500
0aaaaa

#55000
1aaaaa
0aaaaq

#55500
0aaaaa

#56000
1aaaaa
1aaaam
b10000000 aaaao

#56500
0aaaaa

#57000
1aaaaa
1aaaan
1aaaap

#57500
0aaaaa

#58000
1aaaaa
0aaaam
1aaaaq

#58500
0aaaaa

#59000
1aaaaa
0aaaan
0aaaap

#59500
0aaaaa

#60000
1aaaaa
b0 aaaal
1aaaam
0aaaaq

#60500
0aaaaa

#61000
1aaaaa
1aaaan
b0 aaaao

#61500
0aaaaa

#62000
1aaaaa
0aaaam

#62500
0aaaaa

#63000
1aaaaa
0aaaan

#63500
0aaaaa

#64000
1aaaaa

#64500
0aaaaa

#65000
1aaaaa

#65500
0aaaaa

#66000
1aaaaa

#66500
0aaaaa

#67000
1aaaaa
b10000001 aaaal

#67500
0aaaaa

#68000
1aaaaa

#68500
0aaaaa

#69000
1aaaaa
1aaaam

#69500
0aaaaa

#70000
1aaaaa
1aaaan

#70500
0aaaaa

#71000
1aaaaa
0aaaam

#71500
0aaaaa

#72000
1aaaaa
0aaaan

#72500
0aaaaa
b111 aaaal

#73000
1aaaaa
1aaaam

#73500
0aaaaa

#74000
1aaaaa
1aaaan

#74500
0aaaaa

#75000
1aaaaa
0aaaam

#75500
0aaaaa

#76000
1aaaaa
0aaaan

#76500
0aaaaa

#77000
1aaaaa
1aaaam

#77500
0aaaaa

#78000
1aaaaa
1aaaan

#78500
0aaaaa

#79000
1aaaaa
0aaaam

#79500
0aaaaa
b100101 aaaal

#80000
1aaaaa
0aaaan

#80500
0aaaaa

#81000
1aaaaa

#81500
0aaaaa

#82000
1aaaaa
1aaaam

#82500
0aaaaa

#83000
1aaaaa
1aaaan

#83500
0aaaaa

#84000
1aaaaa
0aaaam

#84500
0aaaaa

#85000
1aaaaa
0aaaan

#85500
0aaaaa

#86000
1aaaaa

#86500
0aaaaa

#87000
1aaaaa

#87500
0aaaaa
b1101 aaaal

#88000
1aaaaa

#88500
0aaaaa

#89000
1aaaaa

#89500
0aaaaa

#90000
1aaaaa
1aaaam

#90500
0aaaaa

#91000
1aaaaa
1aaaan

#91500
0aaaaa

#92000
1aaaaa
0aaaam

#92500
0aaaaa

#93000
1aaaaa
0aaaan

#93500
0aaaaa

#94000
1aaaaa
1aaaam

#94500
0aaaaa

#95000
1aaaaa
1aaaan

#95500
0aaaaa
b10000 aaaal

#96000
1aaaaa
0aaaam

#96500
0aaaaa

#97000
1aaaaa
0aaaan

#97500
0aaaaa

#98000
1aaaaa
1aaaam

#98500
0aaaaa

#99000
1aaaaa
1aaaan

#99500
0aaaaa

#100000
1aaaaa
0aaaam

#100500
0aaaaa

#101000
1aaaaa
0aaaan

#101500
0aaaaa

#102000
1aaaaa

#102500
0aaaaa

#103000
1aaaaa

#103500
0aaaaa
b10000000 aaaal

#104000
1aaaaa

#104500
0aaaaa

#105000
1aaaaa

#105500
0aaaaa

#106000
1aaaaa
1aaaam

#106500
0aaaaa

#107000
1aaaaa
1aaaan

#107500
0aaaaa

#108000
1aaaaa
0aaaam

#108500
0aaaaa

#109000
1aaaaa
0aaaan

#109500
0aaaaa

#110000
1aaaaa
b0 aaaal
1aaaam

#110500
0aaaaa

#111000
1aaaaa
1aaaan

#111500
0aaaaa

#112000
1aaaaa
0aaaam

#112500
0aaaaa

#113000
1aaaaa
0aaaan

