XINA/XINA_tb.vcd
$date
     Aug 31, 2021       20:49:53
$end

$version
 SystemC 2.3.3-Accellera --- Mar 22 2020 15:59:11
$end

$timescale
     1 ps
$end

$scope module SystemC $end
$var wire    1  aaaaa  clk       $end
$var wire    1  aaaab  rst       $end
$var wire    8  aaaac  l_in_data_i [7:0]  $end
$var wire    1  aaaad  l_in_val_i       $end
$var wire    1  aaaae  l_in_ack_o       $end
$var wire    8  aaaaf  l_out_data_o [7:0]  $end
$var wire    1  aaaag  l_out_val_o       $end
$var wire    1  aaaah  l_out_ack_i       $end
$var wire    8  aaaai  _in_data_i [7:0]  $end
$var wire    1  aaaaj  _in_val_i       $end
$var wire    1  aaaak  _in_ack_o       $end
$var wire    8  aaaal  _out_data_o [7:0]  $end
$var wire    1  aaaam  _out_val_o       $end
$var wire    1  aaaan  _out_ack_i       $end
$var wire    8  aaaao  in_data_i [7:0]  $end
$var wire    1  aaaap  in_val_i       $end
$var wire    1  aaaaq  in_ack_o       $end
$var wire    8  aaaar  out_data_o [7:0]  $end
$var wire    1  aaaas  out_val_o       $end
$var wire    1  aaaat  out_ack_i       $end
$var wire    8  aaaau  n_data_i [7:0]  $end
$var wire    1  aaaav  n_val_i       $end
$var wire    1  aaaaw  n_ack_o       $end
$var wire    8  aaaax  ut_data_o [7:0]  $end
$var wire    1  aaaay  ut_val_o       $end
$var wire    1  aaaaz  ut_ack_i       $end
$upscope $end
$enddefinitions  $end

$comment
All initial values are dumped below at time 0 sec = 0 timescale units.
$end

$dumpvars
1aaaaa
1aaaab
b0 aaaac
0aaaad
0aaaae
b0 aaaaf
0aaaag
0aaaah
b0 aaaai
0aaaaj
0aaaak
b0 aaaal
0aaaam
0aaaan
b0 aaaao
0aaaap
0aaaaq
b0 aaaar
0aaaas
0aaaat
b0 aaaau
0aaaav
0aaaaw
b0 aaaax
0aaaay
0aaaaz
$end

#500
0aaaaa

#1000
1aaaaa
0aaaab
b10000001 aaaac

#1500
0aaaaa

#2000
1aaaaa
1aaaad

#2500
0aaaaa

#3000
1aaaaa
1aaaae

#3500
0aaaaa

#4000
1aaaaa
0aaaad

#4500
0aaaaa

#5000
1aaaaa
0aaaae

#5500
0aaaaa

#6000
1aaaaa
b100 aaaac

#6500
0aaaaa

#7000
1aaaaa
1aaaad

#7500
0aaaaa

#8000
1aaaaa
1aaaae

#8500
0aaaaa

#9000
1aaaaa
0aaaad

#9500
0aaaaa

#10000
1aaaaa
0aaaae

#10500
0aaaaa

#11000
1aaaaa
b10000 aaaac

#11500
0aaaaa

#12000
1aaaaa
1aaaad

#12500
0aaaaa

#13000
1aaaaa
1aaaae

#13500
0aaaaa

#14000
1aaaaa
0aaaad

#14500
0aaaaa

#15000
1aaaaa
0aaaae

#15500
0aaaaa

#16000
1aaaaa
b10000000 aaaac

#16500
0aaaaa

#17000
1aaaaa
1aaaad

#17500
0aaaaa

#18000
1aaaaa
1aaaae

#18500
0aaaaa

#19000
1aaaaa
0aaaad

#19500
0aaaaa

#20000
1aaaaa
0aaaae

#20500
0aaaaa

#21000
1aaaaa
b0 aaaac

